----------------------------------------------------------------------------------------------------

/

.gitignore ( Listo NV )
Bitacora Telas & Tonos.txt NV ->
README ( Listo NV )

----------------------------------------------------------------------------------------------------

/templates/telasytonos/

index.html ( Listo NV )
index.php ( Listo NV )
templateDetails.xml ( Listo NV )

----------------------------------------------------------------------------------------------------

/templates/telasytonos/css/

index.html ( Listo NV )
template.css NV ->

----------------------------------------------------------------------------------------------------

/templates/telasytonos/css/fonts/

index.html ( Listo NV )

----------------------------------------------------------------------------------------------------

/templates/telasytonos/html/

index.html ( Listo NV )
modules.php ( Listo NV )

----------------------------------------------------------------------------------------------------

/templates/telasytonos/html/com_users/

index.html ( Listo NV )

----------------------------------------------------------------------------------------------------

/templates/telasytonos/html/com_users/login/

default_login.php ( Modificado NV )
index.html ( Listo NV )

----------------------------------------------------------------------------------------------------

/templates/telasytonos/html/com_users/registration/

default.php ( Modificado NV )
index.html ( Listo NV )

----------------------------------------------------------------------------------------------------

/templates/telasytonos/html/com_users/remind/

default.php ( Modificado NV )
index.html ( Listo NV )

----------------------------------------------------------------------------------------------------

/templates/telasytonos/html/com_users/reset/

default.php ( Modificado NV )
index.html ( Listo NV )

----------------------------------------------------------------------------------------------------

/templates/telasytonos/html/com_virtuemart/

index.html ( Listo NV )

----------------------------------------------------------------------------------------------------

/templates/telasytonos/html/com_virtuemart/category/

index.html ( Listo NV )

----------------------------------------------------------------------------------------------------

/templates/telasytonos/html/com_virtuemart/productdetails/

default.php ( Modificado )
index.html ( Listo NV )

----------------------------------------------------------------------------------------------------

/templates/telasytonos/html/com_virtuemart/sublayouts/

index.html ( Listo NV )
products.php ( Modificado )

----------------------------------------------------------------------------------------------------

/templates/telasytonos/images/

index.html ( Listo NV )

----------------------------------------------------------------------------------------------------

/templates/telasytonos/js/

index.html ( Listo NV )

----------------------------------------------------------------------------------------------------

/templates/telasytonos/js/bootstrap/

index.html ( Listo NV )

----------------------------------------------------------------------------------------------------

/templates/telasytonos/js/bootstrap/css/

index.html ( Listo NV )

----------------------------------------------------------------------------------------------------

/templates/telasytonos/js/bootstrap/fonts/

index.html ( Listo NV )

----------------------------------------------------------------------------------------------------

/templates/telasytonos/js/bootstrap/js/

index.html ( Listo NV )

----------------------------------------------------------------------------------------------------

/templates/telasytonos/js/jquery/

index.html ( Listo NV )
scripts.js ( Listo NV )

----------------------------------------------------------------------------------------------------

/templates/telasytonos/js/jquery/fancybox/

index.html ( Listo NV )

----------------------------------------------------------------------------------------------------

/templates/telasytonos/js/jquery/fancybox/helpers/

index.html ( Listo NV )

----------------------------------------------------------------------------------------------------

/templates/telasytonos/js/jquery/owl-carousel/

index.html ( Listo NV )

----------------------------------------------------------------------------------------------------

/templates/telasytonos/js/jquery/owl-carousel/assets/

index.html ( Listo NV )

----------------------------------------------------------------------------------------------------

/templates/telasytonos/language/

index.html ( Listo NV )

----------------------------------------------------------------------------------------------------

/templates/telasytonos/swf/

index.html ( Listo NV )

----------------------------------------------------------------------------------------------------